<?xml version="1.0" encoding="UTF-8"?>
<model ref="r:b724eee5-bd3d-4f4c-8d12-9d7fd29601b3(ArduinoML.behavior)">
  <persistence version="9" />
  <languages>
    <use id="af65afd8-f0dd-4942-87d9-63a55f2a9db1" name="jetbrains.mps.lang.behavior" version="1" />
    <devkit ref="2677cb18-f558-4e33-bc38-a5139cee06dc(jetbrains.mps.devkit.language-design)" />
  </languages>
  <imports />
  <registry />
</model>

